{
  "products": [
    {
      "id": 1,
      "productName": "MONITOR ASUS PB27UQ 27",
      "unitPrice": "120",
      "thumbnail": "/images/product/MONITOR_ASUS.jpg"
    },
    {
      "id": 2,
      "productName": "HP ENVY X360 13-AGOOOOAU TOUCH-SCREEN",
      "unitPrice": "90",
      "thumbnail": "/images/product/HPENV.png"
    },
    {
      "id": 3,
      "productName": "PRINTER HP DESKJET 1112",
      "unitPrice": "200",
      "thumbnail": "/images/product/PRINTER.png"
    },
    {
      "id": 4,
      "productName": "NAS SYNOLOGY 2-BAY INTEL CELERON",
      "unitPrice": "140",
      "thumbnail": "/images/product/NAS.png"
    },
    {
      "id": 5,
      "productName": "HEADSET STEELSERIES ARCTIS 3 BLACK 2019",
      "unitPrice": "200",
      "thumbnail": "/images/product/HEADSET.png"
    },
    {
      "id": 6,
      "productName": "CPU AMD AM4 RYZEN7 2700X 3.7 GHz",
      "unitPrice": "140",
      "thumbnail": "/images/product/CPUAMD.png"
    }
  ],
  "orders": [
    {
      "orderedDate": "2019-01-18T08:19:25.084Z",
      "totalPrice": 320,
      "orders": [
        {
          "product": {
            "id": 2,
            "productName": "HP ENVY X360 13-AGOOOOAU TOUCH-SCREEN",
            "unitPrice": "90",
            "thumbnail": "/images/product/HPENV.png"
          },
          "quantity": 2
        },
        {
          "product": {
            "id": 4,
            "productName": "NAS SYNOLOGY 2-BAY INTEL CELERON",
            "unitPrice": "140",
            "thumbnail": "/images/product/NAS.png"
          },
          "quantity": 1
        }
      ],
      "id": 1
    },
    {
      "orderedDate": "2019-01-20T08:18:39.133Z",
      "totalPrice": 680,
      "orders": [
        {
          "product": {
            "id": 6,
            "productName": "CPU AMD AM4 RYZEN7 2700X 3.7 GHz",
            "unitPrice": "140",
            "thumbnail": "/images/product/CPUAMD.png"
          },
          "quantity": 1
        },
        {
          "product": {
            "id": 5,
            "productName": "HEADSET STEELSERIES ARCTIS 3 BLACK 2019",
            "unitPrice": "200",
            "thumbnail": "/images/product/HEADSET.png"
          },
          "quantity": 2
        },
        {
          "product": {
            "id": 4,
            "productName": "NAS SYNOLOGY 2-BAY INTEL CELERON",
            "unitPrice": "140",
            "thumbnail": "/images/product/NAS.png"
          },
          "quantity": 1
        }
      ],
      "id": 2
    },
    {
      "orderedDate": "2019-01-20T09:12:01.584Z",
      "totalPrice": 320,
      "orders": [
        {
          "product": {
            "id": 1,
            "productName": "MONITOR ASUS PB27UQ 27",
            "unitPrice": "120",
            "thumbnail": "/images/product/MONITOR_ASUS.jpg"
          },
          "quantity": 1
        },
        {
          "product": {
            "id": 5,
            "productName": "HEADSET STEELSERIES ARCTIS 3 BLACK 2019",
            "unitPrice": "200",
            "thumbnail": "/images/product/HEADSET.png"
          },
          "quantity": 1
        }
      ],
      "id": 3
    }
  ]
}